{
  "sections": {
    "1643305980ca8762c7": {
      "type": "custom-content",
      "blocks": {
        "16433059808308ceb3-0": {
          "type": "text",
          "disabled": true,
          "settings": {
            "title": "Talk about your brand",
            "subheading": "",
            "text": "<p>Use this text to share information about your brand with your customers. Describe a product, share announcements, or welcome customers to your store.<\/p>",
            "width": "50%",
            "alignment": "center",
            "align_text": "left",
            "text_size": "medium",
            "text_color": "black",
            "button_label": "",
            "button_link": "",
            "button_style": "sf__btn-primary",
            "button_size": "",
            "block_custom_class": ""
          }
        },
        "16433059808308ceb3-1": {
          "type": "image",
          "disabled": true,
          "settings": {
            "link": "",
            "width": "50%",
            "alignment": "center",
            "block_custom_class": ""
          }
        }
      },
      "block_order": [
        "16433059808308ceb3-0",
        "16433059808308ceb3-1"
      ],
      "settings": {
        "heading": "",
        "subheading": "",
        "description": "<br>",
        "header_alignment": "center",
        "container": "container-fluid",
        "background_color": "",
        "gap": 30,
        "use_scroll_mobile": false,
        "gap_mobile": 16,
        "custom_class": ""
      }
    },
    "16433039161f5033ba": {
      "type": "custom-content",
      "settings": {
        "heading": "",
        "subheading": "",
        "description": "<h4><strong>Shipping \/ Delivery<\/strong><\/h4>",
        "header_alignment": "left",
        "container": "w-full",
        "background_color": "",
        "gap": 30,
        "use_scroll_mobile": false,
        "gap_mobile": 16,
        "custom_class": ""
      }
    },
    "1643303902d50ae757": {
      "type": "collapsible-tabs",
      "blocks": {
        "1643303902861cb8d0-0": {
          "type": "item",
          "settings": {
            "header": "How long does shipping take?",
            "content": "<p>Standard shipping time is 3-5 business days within the U.S lower 48. Alaska and Hawaii may take up to 7 business days. International shipping may vary from 5 to 1 business days. We ship with FedEx and USPS.<\/p><p>Returned\/undeliverable packages may incur additional shipping costs.<\/p><p><\/p><p>Thank you for understanding that we cannot guarantee ship times quoted by shipping carriers.  <\/p>",
            "content_page": "",
            "open": false
          }
        },
        "1643303902861cb8d0-1": {
          "type": "item",
          "settings": {
            "header": "Do you ship internationally?",
            "content": "<p>Yes! We ship to all countries. You’ll be able to select your country at checkout. The current shipping rate will be added. <em>International shipping does not include duties or import tax. Your country may charge additional duties or import tax upon delivery of your order.<\/em><\/p><p>Returned\/undeliverable packages may incur additional shipping costs.<\/p>",
            "content_page": "",
            "open": false
          }
        },
        "9323b91f-5190-4937-b977-f3aae2d66916": {
          "type": "item",
          "settings": {
            "header": "Can I expedite my shipping? I only see 1 shipping option.",
            "content": "<p>We can assist in expediting your shipping if needed. Please keep in mind that many shipping carriers are not offering a guarantee on expedited shipping times due to covid-19 circumstances. Even if a shipping carrier does not deliver on time, they still may not refund the extra you paid for expediting. <\/p><p>Thanks for understanding that in such cases, deepsleep does not refund your expedited shipping unless the shipping carrier does. We are not responsible for missed delivery times. <\/p>",
            "content_page": "",
            "open": false
          }
        },
        "b6702391-ad3d-4dc3-a4a1-5b10d1d00e02": {
          "type": "item",
          "settings": {
            "header": "How do I track my order?",
            "content": "<p>You’ll receive an order confirmation email, and a second email when it ships with a tracking link. Please follow your tracking carefully to make sure you know when to expect it. Please avoid leaving your delivery unattended on your porch\/doorstep. Porch Pirates are a big problem- and deepsleep is not responsible for missing\/stolen deliveries.<\/p><p><em><strong>*You can use your tracking link to contact FedEx and arrange for them to hold your delivery, require a signature, or hold it for pick-up at a local facility if you have delivery concerns and want to ensure it’s safest arrival to you.<\/strong><\/em><\/p>",
            "content_page": "",
            "open": false
          }
        },
        "20e52834-7117-486e-80ef-bfd7cb0baf03": {
          "type": "item",
          "settings": {
            "header": "Can I change my address after I place my order?",
            "content": "<p>We can assist with changing your address if your order has <em>not<\/em> yet shipped. If you order has shipped, please use your tracking information to contact the carrier and have them adjust your address as needed.<\/p><p>Returned\/undeliverable packages may incur additional shipping costs.<\/p>",
            "content_page": "",
            "open": false
          }
        },
        "cba34d65-05de-47fd-aee4-45e0ed2d0feb": {
          "type": "item",
          "settings": {
            "header": "My tracking shows delivered but it’s not here!",
            "content": "<p>Please make sure you checked all of your exterior doors, porches, even in your bushes!                            <\/p><p><em>Immediately<\/em> check with your nearby neighbors as they may have got it on accident or grabbed it for safe keeping.              <\/p><p>Check with all family members incase they already brought it in, or accepted the delivery.<\/p><p>Sometimes packages show delivered, but arrive later in the day or sometimes the next day.<br\/><\/p><p>If you have not found it after that: You will need to place a claim with the shipping company. Please use your tracking information to call FedEx or the carrier A.S.A.P. Ask to speak with a representative and place a ‘delivery dispute’ (…The sooner the better) They will provide you with a case number and investigate any delivery error.<\/p><p><em>Disputes are handled directly by the carrier only and they determine results. Deepsleep cannot be held responsible for missing deliveries to a correct address.<\/em><\/p><p>Deepsleep <em>can<\/em> assist with packages that are: delayed in transit, lost in transit, or that arrive damaged. Thank you for understanding that we <em>cannot<\/em> offer assistance on stolen deliveries.<\/p><p><\/p>",
            "content_page": "",
            "open": false
          }
        }
      },
      "block_order": [
        "1643303902861cb8d0-0",
        "1643303902861cb8d0-1",
        "9323b91f-5190-4937-b977-f3aae2d66916",
        "b6702391-ad3d-4dc3-a4a1-5b10d1d00e02",
        "20e52834-7117-486e-80ef-bfd7cb0baf03",
        "cba34d65-05de-47fd-aee4-45e0ed2d0feb"
      ],
      "settings": {
        "container": "container"
      }
    },
    "1643305142bb8003e7": {
      "type": "collapsible-tabs",
      "blocks": {
        "16433051422185c1d5-0": {
          "type": "item",
          "settings": {
            "header": "<br> My order arrived damaged",
            "content": "<p>If your package arrives damaged, please document the damage with photos and contact us!<br\/>For fastest time, email our team at<a href=\"mailto:customersupport@deepsleepoverland.com\">customersupport@deepsleepoverland.com<\/a>and we can help.<\/p>",
            "content_page": "",
            "open": false
          }
        },
        "16433051422185c1d5-1": {
          "type": "item",
          "disabled": true,
          "settings": {
            "header": "Collapsible tab heading",
            "content": "<p>Shipping cost is based on weight. Just add products to your cart and use the Shipping Calculator to see the shipping price.<\/p><p>We want you to be 100% satisfied with your purchase. Items can be returned or exchanged within 30 days of delivery.<\/p>",
            "content_page": "",
            "open": false
          }
        }
      },
      "block_order": [
        "16433051422185c1d5-0",
        "16433051422185c1d5-1"
      ],
      "settings": {
        "container": "container"
      }
    },
    "1643305365a0d00042": {
      "type": "custom-content",
      "blocks": {
        "1643305364d65fa3e9-0": {
          "type": "text",
          "disabled": true,
          "settings": {
            "title": "Talk about your brand",
            "subheading": "",
            "text": "<p>Use this text to share information about your brand with your customers. Describe a product, share announcements, or welcome customers to your store.<\/p>",
            "width": "50%",
            "alignment": "center",
            "align_text": "left",
            "text_size": "medium",
            "text_color": "black",
            "button_label": "",
            "button_link": "",
            "button_style": "sf__btn-primary",
            "button_size": "",
            "block_custom_class": ""
          }
        },
        "1643305364d65fa3e9-1": {
          "type": "image",
          "disabled": true,
          "settings": {
            "link": "",
            "width": "50%",
            "alignment": "center",
            "block_custom_class": ""
          }
        }
      },
      "block_order": [
        "1643305364d65fa3e9-0",
        "1643305364d65fa3e9-1"
      ],
      "settings": {
        "heading": "",
        "subheading": "",
        "description": "<h4><strong>Product Care and Repair<\/strong><\/h4>",
        "header_alignment": "left",
        "container": "w-full",
        "background_color": "",
        "gap": 30,
        "use_scroll_mobile": false,
        "gap_mobile": 16,
        "custom_class": ""
      }
    },
    "1643305356a8cf6c82": {
      "type": "collapsible-tabs",
      "blocks": {
        "1643305356311b6a0f-0": {
          "type": "item",
          "settings": {
            "header": "How do I clean my mattress?",
            "content": "<p>Don’t overthink it, a damp rag works great …and if needed, you can use lightly soapy water. Allow it to air dry. Don’t use any harsh soaps, bleach or chemicals which could cause surface damage and void the warranty.<\/p><p>This seems obvious, but please don’t put your mattress product in a washing machine or dryer under any circumstances.<\/p>",
            "content_page": "",
            "open": false
          }
        },
        "1643305356311b6a0f-1": {
          "type": "item",
          "settings": {
            "header": "How do I store\/protect my deepsleep product?",
            "content": "<p>Please store your mattress, or screens in the free protective storage bag that’s included. Deepsleep is durable, but not indestructible. We recommend deflating it and returning it to it’s bag after each use. If you’re setting gear on top if it when not in use, or camping with pets it’s best to cover\/ protect it with a blanket.<\/p>",
            "content_page": "",
            "open": false
          }
        },
        "88b4eba8-0bc7-449e-a28e-5a629b058081": {
          "type": "item",
          "settings": {
            "header": "How do I repair a leak?",
            "content": "<p>Small accidental damage or pinholes caused can usually be quickly repaired with the specialized patch included. If you have more significant damage or are unsure of performing a repair, contact us about our free repair service or for helpful tips!<\/p><p><\/p>",
            "content_page": "",
            "open": false
          }
        }
      },
      "block_order": [
        "1643305356311b6a0f-0",
        "1643305356311b6a0f-1",
        "88b4eba8-0bc7-449e-a28e-5a629b058081"
      ],
      "settings": {
        "container": "container"
      }
    },
    "main": {
      "type": "page-faqs",
      "disabled": true,
      "blocks": {
        "e0e05837-417b-4484-8337-fde3db94a749": {
          "type": "content",
          "disabled": true,
          "settings": {
            "content": "<h4><strong>Shipping \/ Delivery<\/strong><\/h4>"
          }
        },
        "accordion-1": {
          "type": "accordion",
          "disabled": true,
          "settings": {
            "title": "How long does shipping take?",
            "content": "<p>Standard shipping time is 3-5 business days within the U.S lower 48. Alaska and Hawaii may take up to 7 business days. International shipping may vary from 5 to 1 business days. We ship with FedEx and USPS. <\/p><p><\/p><p>Returned\/undeliverable packages may incur additional shipping costs.<\/p><p>  <\/p><p>Thank you for understanding that we cannot guarantee ship times quoted by shipping carriers.  <\/p>",
            "open": false
          }
        },
        "accordion-2": {
          "type": "accordion",
          "disabled": true,
          "settings": {
            "title": "Do you ship internationally?",
            "content": "<p>Yes! We ship to all countries. You’ll be able to select your country at checkout. The current shipping rate will be added. <em>International shipping does not include duties or import tax. Your country may charge additional duties or import tax upon delivery of your order.<\/em> <\/p><p>Returned\/undeliverable packages may incur additional shipping costs.<\/p>",
            "open": false
          }
        },
        "accordion-3": {
          "type": "accordion",
          "disabled": true,
          "settings": {
            "title": "Can I expedite my shipping? I only see 1 shipping option.",
            "content": "<p>We can assist in expediting your shipping if needed. Please keep in mind that many shipping carriers are not offering a guarantee on expedited shipping times due to covid-19 circumstances. Even if a shipping carrier does not deliver on time,<br\/>they still may not refund the extra you paid for expediting. Thanks for understanding that in such cases, deepsleep does not refund your expedited shipping unless the shipping carrier does. We are not responsible for missed delivery times.  <\/p>",
            "open": false
          }
        },
        "accordion-4": {
          "type": "accordion",
          "disabled": true,
          "settings": {
            "title": "How do I track my order?",
            "content": "<p>You’ll receive an order confirmation email, and a second email when it ships with a tracking link. Please follow your tracking carefully to make sure you know when to expect it. Please avoid leaving your delivery unattended on your porch\/doorstep. Porch Pirates are a big problem- and deepsleep is not responsible for missing\/stolen deliveries. <\/p><p><em><strong>*You can use your tracking link to contact FedEx and arrange for them to hold your delivery, require a signature, or hold it for pick-up at a local facility if you have delivery concerns and want to ensure it’s safest arrival to you. <\/strong><\/em><\/p>",
            "open": false
          }
        },
        "accordion-5": {
          "type": "accordion",
          "disabled": true,
          "settings": {
            "title": "Can I change my address after I place my order?",
            "content": "<p>We can assist with changing your address if your order has <em>not<\/em> yet shipped. If you order has shipped, please use your tracking information to contact the carrier and have them adjust your address as needed. <\/p><p>Returned\/undeliverable packages may incur additional shipping costs.<\/p>",
            "open": false
          }
        },
        "358cc884-e2c6-4030-8da4-347f6f6eb794": {
          "type": "accordion",
          "disabled": true,
          "settings": {
            "title": "My tracking shows delivered but it’s not here!",
            "content": "<p>Please make sure you checked all of your exterior doors, porches, even in your bushes!                             <\/p><p><em>Immediately<\/em> check with your nearby neighbors as they may have got it on accident or grabbed it for safe keeping.              <\/p><p>Check with all family members incase they already brought it in, or accepted the delivery. <\/p><p>Sometimes packages show delivered, but arrive later in the day or sometimes the next day.<br\/><\/p><p>If you have not found it after that: You will need to place a claim with the shipping company. Please use your tracking information to call FedEx or the carrier A.S.A.P. Ask to speak with a representative and place a ‘delivery dispute’ (…The sooner the better) They will provide you with a case number and investigate any delivery error. <\/p><p><em>Disputes are handled directly by the carrier only and they determine results. Deepsleep cannot be held responsible for missing deliveries to a correct address. <\/em><\/p><p>Deepsleep <em>can<\/em> assist with packages that are: delayed in transit, lost in transit, or that arrive damaged. Thank you for understanding that we <em>cannot<\/em> offer assistance on stolen deliveries.<\/p>",
            "open": false
          }
        },
        "6f2ce6a6-d166-4894-944b-e17fa397f077": {
          "type": "accordion",
          "disabled": true,
          "settings": {
            "title": "My order arrived damaged",
            "content": "<p>If your package arrives damaged, please document the damage with photos and contact us!<br\/>For fastest time, email our team at <a href=\"mailto:customersupport@deepsleepoverland.com\">customersupport@deepsleepoverland.com<\/a> and we can help. <\/p>",
            "open": false
          }
        },
        "c1e0a069-59ec-4c0f-8bb2-9981d6477f34": {
          "type": "content",
          "disabled": true,
          "settings": {
            "content": "<h4><strong>Product Care and Repair<\/strong><\/h4>"
          }
        },
        "033f60a1-f7c1-469b-a3e6-fc8a21936fa0": {
          "type": "accordion",
          "disabled": true,
          "settings": {
            "title": "How do I clean my mattress?",
            "content": "<p>Don’t overthink it, a damp rag works great …and if needed, you can use lightly soapy water. Allow it to air dry. Don’t use any harsh soaps, bleach or chemicals which could cause surface damage and void the warranty. <\/p><p>This seems obvious, but please don’t put your mattress product in a washing machine or dryer under any circumstances. <\/p>",
            "open": false
          }
        },
        "3e7e7aa0-f95c-4371-90b2-4b874128bc78": {
          "type": "accordion",
          "disabled": true,
          "settings": {
            "title": "How do I store\/ protect my deepsleep product?",
            "content": "<p>Please store your mattress, or screens in the free protective storage bag that’s included. Deepsleep is durable, but not indestructible. We recommend deflating it and returning it to it’s bag after each use. If you’re setting gear on top if it when not in use, or camping with pets it’s best to cover\/ protect it with a blanket. <\/p>",
            "open": false
          }
        },
        "e68a5a71-cd52-49f6-8dbf-686e67273d2c": {
          "type": "accordion",
          "disabled": true,
          "settings": {
            "title": "How do I repair a leak?",
            "content": "<p>Small accidental damage or pinholes caused can usually be quickly repaired with the specialized patch included. If you have more significant damage or are unsure of performing a repair, contact us about our free repair service or for helpful tips!<\/p>",
            "open": false
          }
        },
        "d9281270-5d80-4bf1-ba7c-22b78adfa900": {
          "type": "content",
          "disabled": true,
          "settings": {
            "content": "<h4><strong>Warranty Information<\/strong><\/h4>"
          }
        },
        "9dfd36bb-c66c-4f2a-8ebd-b3e8c752ff9b": {
          "type": "accordion",
          "disabled": true,
          "settings": {
            "title": "Your deepsleep investment includes an industry leading 2 year warranty and 1 free repair service if you ever need it.",
            "content": "<p>The 2 year warranty starts date of purchase. All items are packaged in a controlled environment, so this warranty covers manufacturing defects only and is good for up to 1 replacement. Normal wear and tear from use are not covered.<\/p><p><em>If you have a small damage\/cut or pinhole that occurs, it can usually be repaired with the free specialized patch included in your kit.<\/em><\/p><p><em>We also offer 1 free repair service. Return shipping is paid by customer, we provide free shipping back.<\/em><\/p><p><\/p><p>Deepsleep reserves the right to determine what is covered by this warranty. We may choose to repair or replace. We may opt to offer assistance remotely or require a return. If you’re experiencing air loss and are unable to identify a leak area, we offer a free inspection service. <em>Return shipping is paid by customer, we provide free shipping back after repair or replacement<br\/>process. <\/em><\/p><p>Verification of purchase is required. <\/p>",
            "open": false
          }
        },
        "2e31c5cd-f6d3-4e99-a679-d9cf7dee530e": {
          "type": "content",
          "disabled": true,
          "settings": {
            "content": "<h4><strong>Returns<\/strong><\/h4>"
          }
        },
        "01210c8a-a3ee-4acb-8298-868ad1fd3620": {
          "type": "accordion",
          "disabled": true,
          "settings": {
            "title": "We accept the return of unopened items for up to 60 days after purchase for a full refund minus shipping costs. The original packaging must be unopened.",
            "content": "<p>Mattress product returns with opened packaging automatically incur a 25% restocking fee pro-rated from refund for inspection, sanitization and re-boxing that is required due to the nature of the product. All original items\/accessories must<br\/>be included in the return.<\/p><p><em>Items that show any signs of wear and tear, or damage will not be accepted for return<\/em>. deepsleep will provide the reason<br\/>for decline of the return and ship the item back to purchaser. <\/p><p>Deepsleep does not provide free return shipping, but we can provide a return label rate that is usually significantly cheaper than standard shipping rates. Shipping charges are non-refundable.<\/p><p>Returns must be authorized before delivery. Unauthorized returns will not be accepted. <\/p>",
            "open": false
          }
        }
      },
      "block_order": [
        "e0e05837-417b-4484-8337-fde3db94a749",
        "accordion-1",
        "accordion-2",
        "accordion-3",
        "accordion-4",
        "accordion-5",
        "358cc884-e2c6-4030-8da4-347f6f6eb794",
        "6f2ce6a6-d166-4894-944b-e17fa397f077",
        "c1e0a069-59ec-4c0f-8bb2-9981d6477f34",
        "033f60a1-f7c1-469b-a3e6-fc8a21936fa0",
        "3e7e7aa0-f95c-4371-90b2-4b874128bc78",
        "e68a5a71-cd52-49f6-8dbf-686e67273d2c",
        "d9281270-5d80-4bf1-ba7c-22b78adfa900",
        "9dfd36bb-c66c-4f2a-8ebd-b3e8c752ff9b",
        "2e31c5cd-f6d3-4e99-a679-d9cf7dee530e",
        "01210c8a-a3ee-4acb-8298-868ad1fd3620"
      ],
      "settings": {
        "container": "container",
        "menu": ""
      }
    },
    "1643305392bf7beb92": {
      "type": "custom-content",
      "blocks": {
        "164330539288f5cbea-0": {
          "type": "text",
          "disabled": true,
          "settings": {
            "title": "Talk about your brand",
            "subheading": "",
            "text": "<p>Use this text to share information about your brand with your customers. Describe a product, share announcements, or welcome customers to your store.<\/p>",
            "width": "50%",
            "alignment": "center",
            "align_text": "left",
            "text_size": "medium",
            "text_color": "black",
            "button_label": "",
            "button_link": "",
            "button_style": "sf__btn-primary",
            "button_size": "",
            "block_custom_class": ""
          }
        },
        "164330539288f5cbea-1": {
          "type": "image",
          "disabled": true,
          "settings": {
            "link": "",
            "width": "50%",
            "alignment": "center",
            "block_custom_class": ""
          }
        }
      },
      "block_order": [
        "164330539288f5cbea-0",
        "164330539288f5cbea-1"
      ],
      "settings": {
        "heading": "",
        "subheading": "",
        "description": "<h4><strong>Warranty Information<\/strong><\/h4>",
        "header_alignment": "left",
        "container": "w-full",
        "background_color": "",
        "gap": 30,
        "use_scroll_mobile": false,
        "gap_mobile": 16,
        "custom_class": ""
      }
    },
    "16433056820be63c55": {
      "type": "collapsible-tabs",
      "blocks": {
        "1643305682764a9781-0": {
          "type": "item",
          "disabled": true,
          "settings": {
            "header": "Collapsible tab heading",
            "content": "<p>Shipping cost is based on weight. Just add products to your cart and use the Shipping Calculator to see the shipping price.<\/p><p>We want you to be 100% satisfied with your purchase. Items can be returned or exchanged within 30 days of delivery.<\/p>",
            "content_page": "",
            "open": false
          }
        },
        "1643305682764a9781-1": {
          "type": "item",
          "settings": {
            "header": "Your deepsleep investment includes an industry leading 2 year warranty and 1 free repair service if you ever need it.",
            "content": "<p>-2 year warranty starts date of purchase. All items are packaged in a controlled environment, so this warranty covers manufacturing defects only and is good for up to 1 replacement. Normal wear and tear from use are not covered.<\/p><p><em>If you have a small damage\/cut or pinhole that occurs, it can usually be repaired with the free specialized patch included in your kit.<\/em><\/p><p><em>We also offer 1 free repair service. Return shipping is paid by customer, we provide free shipping back.<\/em><\/p><p>-Deepsleep reserves the right to determine what is covered by this warranty. We may choose to repair or replace. We may opt to offer assistance remotely or require a return. If you’re experiencing air loss and are unable to identify a leak area, we offer a free inspection service. <em>Return shipping is paid by customer, we provide free shipping back after repair or replacement<br\/>process. <\/em><\/p><p>-Verification of purchase is required. <\/p>",
            "content_page": "",
            "open": false
          }
        }
      },
      "block_order": [
        "1643305682764a9781-0",
        "1643305682764a9781-1"
      ],
      "settings": {
        "container": "container"
      }
    },
    "1643305688a348e386": {
      "type": "custom-content",
      "blocks": {
        "1643305687d27507cc-0": {
          "type": "text",
          "disabled": true,
          "settings": {
            "title": "Talk about your brand",
            "subheading": "",
            "text": "<p>Use this text to share information about your brand with your customers. Describe a product, share announcements, or welcome customers to your store.<\/p>",
            "width": "50%",
            "alignment": "center",
            "align_text": "left",
            "text_size": "medium",
            "text_color": "black",
            "button_label": "",
            "button_link": "",
            "button_style": "sf__btn-primary",
            "button_size": "",
            "block_custom_class": ""
          }
        },
        "1643305687d27507cc-1": {
          "type": "image",
          "disabled": true,
          "settings": {
            "link": "",
            "width": "50%",
            "alignment": "center",
            "block_custom_class": ""
          }
        }
      },
      "block_order": [
        "1643305687d27507cc-0",
        "1643305687d27507cc-1"
      ],
      "settings": {
        "heading": "",
        "subheading": "",
        "description": "<h4><strong>Returns<\/strong><\/h4>",
        "header_alignment": "left",
        "container": "w-full",
        "background_color": "",
        "gap": 30,
        "use_scroll_mobile": false,
        "gap_mobile": 16,
        "custom_class": ""
      }
    },
    "164330596502422b57": {
      "type": "collapsible-tabs",
      "blocks": {
        "164330596539a1236b-0": {
          "type": "item",
          "disabled": true,
          "settings": {
            "header": "Collapsible tab heading",
            "content": "<p>Shipping cost is based on weight. Just add products to your cart and use the Shipping Calculator to see the shipping price.<\/p><p>We want you to be 100% satisfied with your purchase. Items can be returned or exchanged within 30 days of delivery.<\/p>",
            "content_page": "",
            "open": false
          }
        },
        "164330596539a1236b-1": {
          "type": "item",
          "settings": {
            "header": "We accept the return of unopened items for up to 60 days after purchase for a full refund minus shipping cost. The original packaging must be unopened.",
            "content": "<p>Mattress product returns with opened packaging automatically incur a 25% restocking fee pro-rated from refund for inspection, sanitization and re-boxing that is required due to the nature of the product. All original items\/accessories must<br\/>be included in the return.<\/p><p><em>Items that show any signs of wear and tear, or damage will not be accepted for return<\/em>. deepsleep will provide the reason<br\/>for decline of the return and ship the item back to purchaser.<\/p><p>Deepsleep does not provide free return shipping, but we can provide a return label rate that is usually significantly cheaper than standard shipping rates. Shipping charges are non-refundable.<\/p><p>Returns must be authorized before delivery. Unauthorized returns will not be accepted.<\/p>",
            "content_page": "",
            "open": false
          }
        }
      },
      "block_order": [
        "164330596539a1236b-0",
        "164330596539a1236b-1"
      ],
      "settings": {
        "container": "container"
      }
    },
    "1643302349cc6bb7d0": {
      "type": "custom-content",
      "settings": {
        "heading": "",
        "subheading": "",
        "description": "<h4><strong>Common Questions<\/strong><\/h4>",
        "header_alignment": "left",
        "container": "w-full",
        "background_color": "",
        "gap": 30,
        "use_scroll_mobile": false,
        "gap_mobile": 16,
        "custom_class": ""
      }
    },
    "164330124379a55297": {
      "type": "collapsible-tabs",
      "blocks": {
        "16433012437f3605b9-0": {
          "type": "item",
          "settings": {
            "header": "Is it safe to camp in my car? Will I suffocate?",
            "content": "<p>Car camping is perfectly safe. You won’t suffocate. Be careful to choose a safe, legal camping spot. If you have concerns about air flow, you can leave a window cracked open, or consider adding on our window screen accessories which allow windows to stay open but keep bugs out. <\/p><p>If you’re camping in cold temperatures, prepare accordingly and pack warm layers and bedding that is rated for cold temps. <\/p>",
            "content_page": "",
            "open": false
          }
        },
        "16433012437f3605b9-1": {
          "type": "item",
          "settings": {
            "header": "My Cargo area is not totally level\/flat. Does your mattress accommodate the angle?",
            "content": "<p>As any other air mattress you will find, deepsleep is the same thickness throughout and will follow the incline of the car floor. Most sleep unbothered by the slight incline, but here’s some tips if it’s really getting your goat:<\/p><p>-Park as level as possible or with the nose of your vehicle downward if the (terrain allows) to compensate. <\/p><p>-You can use recovery boards (like MAXTRAX) or rocks around the area to park on strategically and help level out the back of the vehicle to your desired angle.<br\/><\/p><p>-Place a rolled up blanket or yoga mat under the end of your mattress to help level.<\/p><p>-If you car camp often you may consider building in a simple, low profile platform to create a perfectly flat surface. (You’ll find an endless supply of DIY inspiration by YouTubers for this, lol). <\/p>",
            "content_page": "",
            "open": false
          }
        },
        "e6ee2145-e75b-42cb-be38-e746107f5299": {
          "type": "item",
          "settings": {
            "header": "Hey deepsleep, can I get a promo or coupon code?",
            "content": "<p>We love a deal just as much as the next guy. We run a few sales throughout the year, so we recommend signing up for our emailing list if you’d like to be notified of a scheduled sale! Thank you for understanding that we strive to keep our value higher, and prices more affordable than industry competitors year-round…for everyone, all the time. For that reason, we rarely offer promo codes or additional discounts. Unlike other companies, we don’t sell through larger retailers or distributors which increases prices, so you’re getting the best direct price on the best gear (without the extra markup).<\/p><p>Deepsleep is an official partner of TreadLightly! We currently offer a 10% discount on any purchase to active TreadLightly! members. <br\/>Contact us with your membership number to validate and receive your deepsleep discount code. <\/p>",
            "content_page": "",
            "open": false
          }
        },
        "edfb82da-12c5-47cf-9367-5d25d06a0a6e": {
          "type": "item",
          "settings": {
            "header": "Where do I put my gear??",
            "content": "<p>There are a lot of creative solutions for where and how to store gear when car camping. Here’s a few tips:<\/p><p>-Put small valuables or backpacks in the front seats and dash area or in the rear footwell space beneath you so it can be locked in securely at night with you. <\/p><p>-Use large plastic storage bins with lids for storage that can usually be pushed under the vehicle at night or stacked<br\/>nearby.<\/p><p>-Consider opting for a rooftop storage bag that is removable to store extra items, or on an existing roof rack or basket you may already have. <\/p><p>Usually if you’re staying in the same campsite, you set your gear up on tables or around your site anyways- right? If you’re camping somewhere where there is potentially major wildlife that might stroll by, then wouldn’t you rather they come across your gear than YOU? A cooler or piece of gear can be replaced. You or your loved ones cannot. Plus, less is more after all. Pack light with the essentials and just what you need to be prepared, and you’ll find there’s plenty of space for everything!<\/p>",
            "content_page": "",
            "open": false
          }
        },
        "9217639a-4d9b-47d8-9996-eece1761893d": {
          "type": "item",
          "settings": {
            "header": "Do you sell sheets? What kind of bedding should I use for this?",
            "content": "<p>Since everyone’s preference and needs for bedding materials are different, we don’t currently offer specific sheets. A ‘double’ sized fitted sheet works great over the full size deepsleep air mattress. You can use any standard bedding like you do at home, or roll your sleeping bags right out over it!<\/p><p>Keep in mind that natural fibers like cotton are the most breathable and best for warm temps. Synthetic fibers are best for<br\/>holding warmth in the cold. Make sure your bedding is seasonally appropriate and rated for the temperatures you’ll be sleeping in!<\/p>",
            "content_page": "",
            "open": false
          }
        },
        "84c86148-95d6-4be0-905a-01c9724c4048": {
          "type": "item",
          "settings": {
            "header": "Will my rear door\/tailgate close?",
            "content": "<p>Yes. All products are designed to fit comfortably with the doors closed for all vehicles that are advertised. <\/p>",
            "content_page": "",
            "open": false
          }
        }
      },
      "block_order": [
        "16433012437f3605b9-0",
        "16433012437f3605b9-1",
        "e6ee2145-e75b-42cb-be38-e746107f5299",
        "edfb82da-12c5-47cf-9367-5d25d06a0a6e",
        "9217639a-4d9b-47d8-9996-eece1761893d",
        "84c86148-95d6-4be0-905a-01c9724c4048"
      ],
      "settings": {
        "container": "container"
      }
    },
    "1643303420385e1be4": {
      "type": "collapsible-tabs",
      "blocks": {
        "802fbb54-9e48-485f-815b-39a7fdf04a55": {
          "type": "liquid",
          "disabled": true,
          "settings": {
            "header": "",
            "custom_liquid": "<br>"
          }
        },
        "164330342038fa5add-0": {
          "type": "item",
          "settings": {
            "header": "<br> What’s the specific dimensions or weight limit?",
            "content": "<p>Deepsleep products comfortably fit most standard and large SUVs. It’s made to fit all vehicles as advertised on our website. If you’re looking to outfit a vehicle not listed, contact us and we can provide specific measurements or fitment help!<\/p><p>Deepsleep full sized air mattress is rated for 850 pounds.<\/p><p>Deepsleep SOLO mats are rated for 400 pounds.<\/p>",
            "content_page": "",
            "open": false
          }
        }
      },
      "block_order": [
        "802fbb54-9e48-485f-815b-39a7fdf04a55",
        "164330342038fa5add-0"
      ],
      "settings": {
        "container": "container"
      }
    },
    "16433034543cc6ccd8": {
      "type": "custom-content",
      "settings": {
        "heading": "",
        "subheading": "",
        "description": "",
        "header_alignment": "center",
        "container": "container-fluid",
        "background_color": "",
        "gap": 30,
        "use_scroll_mobile": false,
        "gap_mobile": 16,
        "custom_class": ""
      }
    }
  },
  "order": [
    "1643305980ca8762c7",
    "16433039161f5033ba",
    "1643303902d50ae757",
    "1643305142bb8003e7",
    "1643305365a0d00042",
    "1643305356a8cf6c82",
    "main",
    "1643305392bf7beb92",
    "16433056820be63c55",
    "1643305688a348e386",
    "164330596502422b57",
    "1643302349cc6bb7d0",
    "164330124379a55297",
    "1643303420385e1be4",
    "16433034543cc6ccd8"
  ]
}