{
  "sections": {
    "1640808934db3effc8": {
      "type": "blog-posts",
      "settings": {
        "heading": "Our Latest Posts",
        "subheading": "",
        "description": "",
        "header_alignment": "center",
        "container": "container-fluid",
        "background_color": "rgba(0,0,0,0)",
        "blog": "",
        "limit": 3,
        "column": 3,
        "column_gap": 30,
        "mobile_gap": 10,
        "article_image_aspect_ratio": "16\/9",
        "article_align_content": "text-left",
        "article_show_tags": false,
        "article_show_date": false,
        "article_show_excerpt": false,
        "article_show_button": false,
        "button_link": "",
        "button_text": "",
        "button_style": "sf__btn-primary",
        "button_size": "",
        "use_scroll_mobile": true,
        "custom_class": ""
      }
    },
    "main": {
      "type": "page",
      "disabled": true,
      "settings": {}
    }
  },
  "order": [
    "1640808934db3effc8",
    "main"
  ]
}