{
  "sections": {
    "main": {
      "type": "page-contact",
      "disabled": true,
      "settings": {
        "container": "container"
      }
    },
    "maps": {
      "type": "maps",
      "disabled": true,
      "settings": {
        "container": "container",
        "map_height": "large",
        "textx": "40.6700",
        "texty": "-73.9400",
        "zoom": "11",
        "text2": "New York"
      }
    },
    "contact-form": {
      "type": "contact-form",
      "blocks": {
        "text-block-1": {
          "type": "textblock",
          "settings": {
            "title": "Address",
            "content": "<p>5036 54th Avenue Ste.#3<br\/>Glendale, AZ. 85301<\/p>"
          }
        },
        "text-block-4": {
          "type": "textblock",
          "settings": {
            "title": "Store hours",
            "content": "<p>Mon, Wed, Fri<\/p><p>10 am - 5 pm MST<\/p>"
          }
        },
        "text-block-2": {
          "type": "textblock",
          "settings": {
            "title": "Information",
            "content": "<p>Tel: 623.800.9442<br\/><br\/>To email us, <a href=\"mailto:Customersupport@deepsleepoverland.com\" title=\"mailto:Customersupport@deepsleepoverland.com\">Click Here<\/a>.<br\/><\/p>"
          }
        },
        "text-block-3": {
          "type": "socialmedia",
          "settings": {
            "title": "Social Media"
          }
        }
      },
      "block_order": [
        "text-block-1",
        "text-block-4",
        "text-block-2",
        "text-block-3"
      ],
      "settings": {
        "container": "container-fluid",
        "title": "Questions or Comments?",
        "description": "<p>We would love to hear from you.<\/p>",
        "show_name": true,
        "show_phone": false,
        "show_email": true,
        "show_message": true
      }
    }
  },
  "order": [
    "main",
    "maps",
    "contact-form"
  ]
}