{
  "sections": {
    "breadcrumb": {
      "type": "breadcrumb",
      "disabled": true,
      "settings": {
        "container": "container",
        "text_alignment": "center",
        "hide_current": true,
        "hide_on_mb": true
      }
    },
    "main": {
      "type": "main-product",
      "blocks": {
        "loox-rating": {
          "type": "shopify:\/\/apps\/loox-product-reviews-photos\/blocks\/loox-rating\/5c3b337f-fd14-4df5-b1d6-80ec13e6e28e",
          "settings": {}
        },
        "title": {
          "type": "title",
          "settings": {}
        },
        "price": {
          "type": "price",
          "settings": {}
        },
        "61d8ebdc-3094-456f-8a88-d0dc7552d09f": {
          "type": "description",
          "settings": {}
        },
        "variant_picker": {
          "type": "variant_picker",
          "settings": {
            "size_title": "Size"
          }
        },
        "buy_buttons": {
          "type": "buy_buttons",
          "settings": {
            "show_quantity_selector": true,
            "show_atc_button": true,
            "show_dynamic_checkout": false
          }
        },
        "7d6cf795-2947-4bb1-bf93-6eeea1e4770e": {
          "type": "short_description",
          "disabled": true,
          "settings": {}
        },
        "addons": {
          "type": "addons",
          "disabled": true,
          "settings": {
            "show_atcp": false,
            "show_ask_a_question": false,
            "show_social": false
          }
        },
        "81b90ae0-24e0-4b7c-84de-cc9587ee3906": {
          "type": "collapsible_tab",
          "settings": {
            "heading": "Features",
            "content": "<p>{{ product.metafields.my_fields.key_features_text | metafield_tag }}<\/p>",
            "liquid": "",
            "default_open": false
          }
        },
        "d1684410-a435-4e55-b001-5cfe470eeaa2": {
          "type": "collapsible_tab",
          "settings": {
            "heading": "Additional specs",
            "content": "<p>{{ product.metafields.my_fields.additional_specs_text | metafield_tag }}<\/p>",
            "liquid": "",
            "default_open": false
          }
        },
        "2c2274a5-9d2e-43c3-b750-570d0da288d0": {
          "type": "collapsible_tab",
          "settings": {
            "heading": "What's included",
            "content": "<p>{{ product.metafields.my_fields.what_s_included_text | metafield_tag }}<\/p>",
            "liquid": "",
            "default_open": false
          }
        },
        "642976af-5cee-4803-8b1e-1bdfb5f23ccb": {
          "type": "collapsible_tab",
          "disabled": true,
          "settings": {
            "heading": "Additional info",
            "content": "<p>{{ product.metafields.my_fields.key_feature_blurbs_text | metafield_tag }}<\/p>",
            "liquid": "",
            "default_open": false
          }
        },
        "07125616-8bd8-4bb2-8e69-df6f5a5639fa": {
          "type": "collapsible_tab",
          "disabled": true,
          "settings": {
            "heading": "FAQs",
            "content": "",
            "liquid": "",
            "default_open": false
          }
        },
        "6a8755e9-4ac0-466b-8c27-90df3a1c147a": {
          "type": "shopify:\/\/apps\/loox-product-reviews-photos\/blocks\/loox-dynamic-section\/5c3b337f-fd14-4df5-b1d6-80ec13e6e28e",
          "settings": {
            "only_photos": false,
            "aggregated": false,
            "hide_thumbnails": false,
            "maxwidth": 1080
          }
        }
      },
      "block_order": [
        "loox-rating",
        "title",
        "price",
        "61d8ebdc-3094-456f-8a88-d0dc7552d09f",
        "variant_picker",
        "buy_buttons",
        "7d6cf795-2947-4bb1-bf93-6eeea1e4770e",
        "addons",
        "81b90ae0-24e0-4b7c-84de-cc9587ee3906",
        "d1684410-a435-4e55-b001-5cfe470eeaa2",
        "2c2274a5-9d2e-43c3-b750-570d0da288d0",
        "642976af-5cee-4803-8b1e-1bdfb5f23ccb",
        "07125616-8bd8-4bb2-8e69-df6f5a5639fa",
        "6a8755e9-4ac0-466b-8c27-90df3a1c147a"
      ],
      "settings": {
        "container": "container",
        "layout": "layout-3",
        "show_atwl": true,
        "show_nav_media_mobile": false,
        "show_pagination_mobile": true,
        "use_sticky_atc": true,
        "use_sticky_atc_on_mobile": true,
        "enable_dynamic_checkout": false,
        "sticky_atc_wishtlist": false,
        "sticky_atc_compare": false
      }
    },
    "1649016247ee827ae2": {
      "type": "icon-box",
      "blocks": {
        "164901624754e2d0fc-0": {
          "type": "iconbox",
          "settings": {
            "image": "{{ product.metafields.my_fields.core_feature_image_1.value }}",
            "title": "{{ product.metafields.my_fields.core_feature_text_1.value }}",
            "description": "",
            "link": "",
            "button_label": "",
            "button_link": "",
            "button_style": "sf__btn-link",
            "button_size": ""
          }
        },
        "164901624754e2d0fc-1": {
          "type": "iconbox",
          "settings": {
            "image": "{{ product.metafields.my_fields.core_feature_image_2.value }}",
            "title": "{{ product.metafields.my_fields.core_feature_text_2.value }}",
            "description": "",
            "link": "",
            "button_label": "",
            "button_link": "",
            "button_style": "sf__btn-link",
            "button_size": ""
          }
        },
        "164901624754e2d0fc-2": {
          "type": "iconbox",
          "settings": {
            "image": "{{ product.metafields.my_fields.main_advantages_image_3.value }}",
            "title": "{{ product.metafields.my_fields.main_advantages_text_3.value }}",
            "description": "",
            "link": "",
            "button_label": "",
            "button_link": "",
            "button_style": "sf__btn-link",
            "button_size": ""
          }
        },
        "06711702-b564-4632-b26c-07f35e6dcdac": {
          "type": "iconbox",
          "settings": {
            "image": "{{ product.metafields.my_fields.main_advantages_image_4.value }}",
            "title": "{{ product.metafields.my_fields.main_advantages_text_4.value }}",
            "description": "",
            "link": "",
            "button_label": "",
            "button_link": "",
            "button_style": "sf__btn-link",
            "button_size": ""
          }
        }
      },
      "block_order": [
        "164901624754e2d0fc-0",
        "164901624754e2d0fc-1",
        "164901624754e2d0fc-2",
        "06711702-b564-4632-b26c-07f35e6dcdac"
      ],
      "settings": {
        "heading": "Key Features",
        "subheading": "",
        "description": "",
        "header_alignment": "center",
        "container": "container-fluid",
        "background_color": "#f8f8f8",
        "item_per_row": 4,
        "item_gap": 40,
        "item_gap_mobile": 10,
        "card_style": "vertical",
        "image_max_width": "600px",
        "content_alignment": "center",
        "hover_effect": "zoom-in",
        "enable_slider": false,
        "show_pagination": false,
        "show_navigation": false,
        "use_scroll_mobile": true,
        "use_grid_column_mb": false,
        "custom_class": ""
      }
    },
    "product-details-tabs": {
      "type": "product-details-tabs",
      "disabled": true,
      "blocks": {
        "description": {
          "type": "description",
          "settings": {
            "header": "Product description"
          }
        },
        "tab": {
          "type": "tab",
          "settings": {
            "header": "Shipping & Return",
            "content": "<p>Shipping cost is based on weight. Just add products to your cart and use the Shipping Calculator to see the shipping price.<\/p><p>We want you to be 100% satisfied with your purchase. Items can be returned or exchanged within 30 days of delivery.<\/p>",
            "content_page": ""
          }
        }
      },
      "block_order": [
        "description",
        "tab"
      ],
      "settings": {
        "container": "container",
        "bg_color": "",
        "default_open": true
      }
    },
    "16408057264b04c1b6": {
      "type": "image-with-text",
      "disabled": true,
      "settings": {
        "heading": "",
        "subheading": "",
        "container": "container-fluid",
        "background_color": "#f8f8f8",
        "item_gap": 40,
        "item_gap_mobile": 30,
        "link": "",
        "layout": "right",
        "image_column_size": "6",
        "title": "",
        "sub_title": "",
        "text": "<p>The deepsleep SOLO Mat is made with our proprietary Trail-tex (with \"tm) material, which is a hefty TPU bonded with a soft, tightly woven polyblend. This offers durability for rugged camping while still providing a quiet, comfortable sleep.<\/p><p><br\/>Just because the trails were rough, doesn't mean the sleep needs to be!<br\/><\/p>",
        "text_size": "medium",
        "content_alignment": "left",
        "button_label": "",
        "button_link": "",
        "button_style": "sf__btn-link",
        "button_size": "",
        "custom_class": ""
      }
    },
    "164080574860fef535": {
      "type": "image-with-text",
      "disabled": true,
      "settings": {
        "heading": "",
        "subheading": "",
        "container": "container-fluid",
        "background_color": "rgba(0,0,0,0)",
        "item_gap": 40,
        "item_gap_mobile": 30,
        "link": "",
        "layout": "left",
        "image_column_size": "6",
        "title": "Optimize Your Space",
        "sub_title": "",
        "text": "<p>The Solo mat is designed for optimization of space when car camping solo with gear next you you...or a set of 2 offers door-to-door comfort for a camping duo.<\/p>",
        "text_size": "medium",
        "content_alignment": "left",
        "button_label": "",
        "button_link": "",
        "button_style": "sf__btn-link",
        "button_size": "",
        "custom_class": ""
      }
    },
    "1640805792f0df07fc": {
      "type": "image-with-text",
      "disabled": true,
      "settings": {
        "heading": "",
        "subheading": "",
        "container": "container-fluid",
        "background_color": "#f8f8f8",
        "item_gap": 40,
        "item_gap_mobile": 30,
        "link": "",
        "layout": "right",
        "image_column_size": "6",
        "title": "Easy Air Release",
        "sub_title": "",
        "text": "<p>A built in push- button air release valve offers the option to adjust your comfort level and mat density as needed. Kinda like Goldilocks... you can get it juuuuust right.<\/p>",
        "text_size": "medium",
        "content_alignment": "left",
        "button_label": "",
        "button_link": "",
        "button_style": "sf__btn-link",
        "button_size": "",
        "custom_class": ""
      }
    },
    "16490164399bf7134d": {
      "type": "icon-box",
      "blocks": {
        "164901643933fd3182-0": {
          "type": "iconbox",
          "settings": {
            "image": "{{ product.metafields.my_fields.compatible_with_image_1.value }}",
            "title": "{{ product.metafields.my_fields.compatible_with_text_1.value }}",
            "description": "",
            "link": "{{ product.metafields.my_fields.compatible_with_link.value }}",
            "button_label": "",
            "button_link": "",
            "button_style": "sf__btn-link",
            "button_size": ""
          }
        },
        "164901643933fd3182-1": {
          "type": "iconbox",
          "settings": {
            "image": "{{ product.metafields.my_fields.compatible_with_image_2.value }}",
            "title": "{{ product.metafields.my_fields.compatible_with_text_2.value }}",
            "description": "",
            "link": "{{ product.metafields.my_fields.compatible_with_link.value }}",
            "button_label": "",
            "button_link": "",
            "button_style": "sf__btn-link",
            "button_size": ""
          }
        },
        "164901643933fd3182-2": {
          "type": "iconbox",
          "settings": {
            "image": "{{ product.metafields.my_fields.compatible_with_image_3.value }}",
            "title": "{{ product.metafields.my_fields.compatible_with_text_3.value }}",
            "description": "",
            "link": "{{ product.metafields.my_fields.compatible_with_link.value }}",
            "button_label": "",
            "button_link": "",
            "button_style": "sf__btn-link",
            "button_size": ""
          }
        },
        "0dbc3cfe-12a8-4146-82cc-6d22bdd6ff9c": {
          "type": "iconbox",
          "settings": {
            "image": "{{ product.metafields.my_fields.compatible_with_image_4.value }}",
            "title": "{{ product.metafields.my_fields.compatible_with_text_4.value }}",
            "description": "",
            "link": "{{ product.metafields.my_fields.compatible_with_link.value }}",
            "button_label": "",
            "button_link": "",
            "button_style": "sf__btn-link",
            "button_size": ""
          }
        },
        "f67e7165-7b33-4635-a48e-efcb1c104469": {
          "type": "iconbox",
          "disabled": true,
          "settings": {
            "image": "{{ product.metafields.my_fields.compatible_with_image_5.value }}",
            "title": "{{ product.metafields.my_fields.compatible_with_text_5.value }}",
            "description": "",
            "link": "{{ product.metafields.my_fields.compatible_with_link.value }}",
            "button_label": "",
            "button_link": "",
            "button_style": "sf__btn-link",
            "button_size": ""
          }
        }
      },
      "block_order": [
        "164901643933fd3182-0",
        "164901643933fd3182-1",
        "164901643933fd3182-2",
        "0dbc3cfe-12a8-4146-82cc-6d22bdd6ff9c",
        "f67e7165-7b33-4635-a48e-efcb1c104469"
      ],
      "settings": {
        "heading": "Compatible With",
        "subheading": "",
        "description": "",
        "header_alignment": "center",
        "container": "container-fluid",
        "background_color": "rgba(0,0,0,0)",
        "item_per_row": 4,
        "item_gap": 20,
        "item_gap_mobile": 6,
        "card_style": "vertical",
        "image_max_width": "160px",
        "content_alignment": "center",
        "hover_effect": "zoom-in",
        "enable_slider": false,
        "show_pagination": false,
        "show_navigation": false,
        "use_scroll_mobile": true,
        "use_grid_column_mb": false,
        "custom_class": ""
      }
    },
    "16500279064a0fe0f2": {
      "type": "product-video",
      "blocks": {
        "16500279063c1f0b59-0": {
          "type": "video_slide",
          "settings": {
            "video": "{{ product.metafields.my_fields.product_video.value }}",
            "content_in_container": false,
            "content_position": "center middle",
            "text_alignment": "center",
            "text_size": "medium",
            "text_color": "black",
            "subheading": "",
            "title": "",
            "description": "",
            "image_link": "",
            "button_text": "",
            "button_link": "",
            "button_style": "sf__btn-primary",
            "button_size": "",
            "show_footer": false,
            "footer_alignment": "end",
            "footer_text": "New Collection",
            "footer_button": "",
            "footer_link": ""
          }
        }
      },
      "block_order": [
        "16500279063c1f0b59-0"
      ],
      "settings": {
        "container": "w-full",
        "slideshow_height": "medium",
        "show_overlay": false,
        "dots_position": "bottom",
        "dots_color": "dark",
        "show_dots": false,
        "show_arrows": false,
        "autorotate": false,
        "autorotate_speed": 5,
        "custom_class": ""
      }
    },
    "1644331002251a6555": {
      "type": "custom-content",
      "disabled": true,
      "blocks": {
        "4fc7c6e3-d332-4e42-807a-8546f74c3065": {
          "type": "video",
          "disabled": true,
          "settings": {
            "video_link": "https:\/\/www.youtube.com\/watch?v=_9VUPq3SxOc",
            "ratio": "16:9",
            "video_title": "",
            "text_size": "medium",
            "text_color": "white",
            "play_style": "solid",
            "play_size": "medium",
            "autoplay": false,
            "loop": false,
            "width": "100%",
            "alignment": "center",
            "block_custom_class": ""
          }
        }
      },
      "block_order": [
        "4fc7c6e3-d332-4e42-807a-8546f74c3065"
      ],
      "settings": {
        "heading": "",
        "subheading": "",
        "description": "",
        "header_alignment": "center",
        "container": "container-fluid",
        "background_color": "",
        "gap": 30,
        "use_scroll_mobile": false,
        "gap_mobile": 16,
        "custom_class": ""
      }
    },
    "recent-viewed-products": {
      "type": "recent-viewed-products",
      "disabled": true,
      "settings": {
        "heading": "Recently Viewed Products",
        "container": "container",
        "columns": 4,
        "column_gap": 30,
        "enable_slider": true
      }
    },
    "1643388860440c00f6": {
      "type": "apps",
      "blocks": {
        "a0e45112-e1c5-4ced-a6b0-d2fa13dfcb0e": {
          "type": "shopify:\/\/apps\/loox-product-reviews-photos\/blocks\/loox-dynamic-section\/5c3b337f-fd14-4df5-b1d6-80ec13e6e28e",
          "settings": {
            "only_photos": false,
            "aggregated": false,
            "hide_thumbnails": false,
            "maxwidth": 1080
          }
        }
      },
      "block_order": [
        "a0e45112-e1c5-4ced-a6b0-d2fa13dfcb0e"
      ],
      "settings": {
        "heading": "",
        "subheading": "",
        "header_alignment": "center",
        "container": "container",
        "background_color": "#f8f8f8",
        "custom_class": ""
      }
    },
    "16443318745b013873": {
      "type": "featured-collection",
      "settings": {
        "heading": "You Might Also Like",
        "subheading": "",
        "description": "",
        "header_alignment": "center",
        "container": "container-fluid",
        "background_color": "rgba(0,0,0,0)",
        "collection": "our-products",
        "product_to_show": 8,
        "items_per_row": 4,
        "item_gap": 30,
        "pcard_layout": "",
        "pcard_image_ratio": "",
        "show_vendor": false,
        "enable_slider": true,
        "show_pagination": false,
        "show_navigation": false,
        "button_type": "link",
        "button_text": "",
        "button_style": "sf__btn-primary",
        "button_size": "",
        "infinite_load": false,
        "max_page_load": 3,
        "use_scroll_mobile": true,
        "item_gap_mobile": 16,
        "custom_class": ""
      }
    },
    "product-recommendations": {
      "type": "product-recommendations",
      "disabled": true,
      "settings": {
        "container": "container",
        "heading": "",
        "limit": 8,
        "columns": 4,
        "column_gap": 30,
        "enable_slider": true
      }
    },
    "loox-product-reviews-app-section": {
      "type": "apps",
      "disabled": true,
      "blocks": {
        "loox-product-reviews": {
          "type": "shopify:\/\/apps\/loox-product-reviews-photos\/blocks\/loox-dynamic-section\/5c3b337f-fd14-4df5-b1d6-80ec13e6e28e",
          "settings": {
            "only_photos": false,
            "aggregated": false,
            "hide_thumbnails": false,
            "maxwidth": 1080
          }
        }
      },
      "block_order": [
        "loox-product-reviews"
      ],
      "settings": {
        "heading": "",
        "subheading": "",
        "header_alignment": "center",
        "container": "container",
        "background_color": "",
        "custom_class": ""
      }
    },
    "ryviu-widget": {
      "type": "ryviu-widget",
      "disabled": true,
      "settings": {}
    },
    "16480561956a93e78a": {
      "type": "image-with-text-2",
      "disabled": true,
      "settings": {
        "container": "w-full",
        "hero_size": "adapt",
        "show_overlay": false,
        "bg_position": "center",
        "image_link": "",
        "parallax": false,
        "content_in_container": false,
        "content_position": "center bottom",
        "text_alignment": "center",
        "text_size": "medium",
        "text_color": "white",
        "title": "",
        "subtitle": "",
        "text": "",
        "button_label": "",
        "button_link": "",
        "button_style": "sf__btn-primary",
        "button_size": "",
        "custom_class": ""
      }
    }
  },
  "order": [
    "breadcrumb",
    "main",
    "1649016247ee827ae2",
    "product-details-tabs",
    "16408057264b04c1b6",
    "164080574860fef535",
    "1640805792f0df07fc",
    "16490164399bf7134d",
    "16500279064a0fe0f2",
    "1644331002251a6555",
    "recent-viewed-products",
    "1643388860440c00f6",
    "16443318745b013873",
    "product-recommendations",
    "loox-product-reviews-app-section",
    "ryviu-widget",
    "16480561956a93e78a"
  ]
}